{
    "en": {
        "notification.missing.message": "Page '{url}' content not found",
        "notification.missing.description": "Create page '{url}' to display additional content on this page.",
        "content.notfound": "As an admin, you can create the '{url}'-page {here} to display additional content on this page.",
        "content.editable": "As an admin, you can edit the '{url}'-page {here} to edit additional content."
    },
    "nl": {
        "notification.missing.message": "Pagina '{url}' inhoud niet gevonden",
        "notification.missing.description": "Maak pagina '{url}' om extra inhoud te laten zien op deze pagina.",
        "content.notfound": "Als administrator, kan je {here} de '{url}'-pagina aanmaken om extra inhoud te laten zien op deze pagina.",
        "content.editable": "Als administrator, kan je {here} de '{url}'-pagina aanpassen om extra inhoud te wijzigen."
    }
}
